{
  "libraries": {
    "_": "lodash",
    "Logging": "log4js"
  },
  "orderExecution": [
    "log4js",
    "metric",
    "express",
    "socketIo",
    "sqlserver",
    "elasticsearch",
    "redis",
    "utils"
  ],
  "modules": {
    "log4js": {
      "load": "inherit"
    },
    "metric": {
      "load": "inherit"
    },
    "express": {
      "load": "inherit"
    },
    "socketIo": {
      "load": "inherit"
    },
    "sqlServer": {
      "load": "inherit"
    },
    "elasticSearch": {
      "load": "inherit"
    },
    "redis": {
      "load": "inherit"
    }
  }
}
