{
  "global_libraries" : {
    "_": "lodash",
    "Logging": "log4js",
    "elasticsearch" : "elasticsearch",
    "Redis" : "redis",
    "moment" : "moment",
    "cron" : "node-cron",
    "clone" : "clone",
    "uuid" : "uuid/v4"

  },
  "global_modules" : ["log4js", "exception","utils","express"]
}