{
  "mapping" : {
    "sqlserver" : {
      "BIGBinary": "STRING",
      "BIGCHAR": "STRING",
      "BIGVARBIN": "STRING",
      "BIGVARCHR": "STRING",
      "BIT": "INTEGER",
      "BITN": "INTEGER",
      "DATEN": "DATE",
      "DATETIM4": "DATE",
      "DATETIME": "DATE",
      "DATETIME2N": "DATE",
      "DATETIMEOFFSETN": "DATE",
      "DATETIMN": "DATE",
      "DECIMAL": "DOUBLE",
      "DECIMALN": "DOUBLE",
      "FLT4": "FLOAT",
      "FLT8": "FLOAT",
      "FLTN": "FLOAT",
      "GUIDN": "NONE",
      "IMAGE": "NONE",
      "INT1": "INTEGER",
      "INT2": "INTEGER",
      "INT4": "INTEGER",
      "INT8": "INTEGER",
      "INTN": "INTEGER",
      "MONEY": "DOUBLE",
      "MONEY4": "DOUBLE",
      "MONEYN": "DOUBLE",
      "NCHAR": "STRING",
      "NTEXT": "STRING",
      "NULL": "NULL",
      "NUMERIC": "DOUBLE",
      "NUMERICN": "DOUBLE",
      "NVARCHAR": "STRING",
      "SSVARIANTTYPE": "STRING",
      "TEXT": "STRING",
      "TIMEN": "DATE",
      "TVPTYPE": "NONE",
      "UDTTYPE": "NONE",
      "XML": "NONE"
    }
  }
}